(module AM2S-0512 (layer F.Cu) (tedit 5A21C769)
  (fp_text reference REF** (at 10.16 -3.81) (layer F.SilkS)
    (effects (font (size 1 1) (thickness 0.15)))
  )
  (fp_text value AM2S-0512 (at 3.81 -6.35) (layer F.Fab)
    (effects (font (size 1 1) (thickness 0.15)))
  )
  (fp_line (start 0 2) (end -6 2) (layer F.SilkS) (width 0.1))
  (fp_line (start -6 2) (end -6 0) (layer F.SilkS) (width 0.1))
  (fp_line (start 0 2) (end 6 2) (layer F.SilkS) (width 0.1))
  (fp_line (start 6 2) (end 6 0) (layer F.SilkS) (width 0.1))
  (fp_line (start -6 0) (end -6 -5.5) (layer F.SilkS) (width 0.1))
  (fp_line (start -6 -5.5) (end 6 -5.5) (layer F.SilkS) (width 0.1))
  (fp_line (start 6 -5.5) (end 6 0) (layer F.SilkS) (width 0.1))
  (fp_line (start -6 1) (end -5 2) (layer F.SilkS) (width 0.1))
  (pad 1 thru_hole oval (at -3.81 0) (size 1.5 2) (drill 0.8) (layers *.Cu *.Mask))
  (pad 2 thru_hole oval (at -1.27 0) (size 1.5 2) (drill 0.8) (layers *.Cu *.Mask))
  (pad 3 thru_hole oval (at 1.27 0) (size 1.5 2) (drill 0.8) (layers *.Cu *.Mask))
  (pad 4 thru_hole oval (at 3.81 0) (size 1.5 2) (drill 0.8) (layers *.Cu *.Mask))
)
