(module B13B_socket (layer F.Cu) (tedit 5C69768D)
  (fp_text reference REF** (at 0 16.4) (layer F.SilkS)
    (effects (font (size 1 1) (thickness 0.15)))
  )
  (fp_text value B13B_socket (at 0 -16.2) (layer F.Fab)
    (effects (font (size 1 1) (thickness 0.15)))
  )
  (fp_circle (center 0 0) (end 15 -0.2) (layer F.SilkS) (width 0.15))
  (pad 1 thru_hole circle (at 0 11) (size 3.5 3.5) (drill 1.5) (layers *.Cu *.Mask))
  (pad 2 thru_hole circle (at 4.77025 9.911847) (size 3.5 3.5) (drill 1.5) (layers *.Cu *.Mask))
  (pad 3 thru_hole circle (at 8.596725 6.862676) (size 3.5 3.5) (drill 1.5) (layers *.Cu *.Mask))
  (pad 4 thru_hole circle (at 10.722373 2.455751) (size 3.5 3.5) (drill 1.5) (layers *.Cu *.Mask))
  (pad 5 thru_hole circle (at 10.726643 -2.437033) (size 3.5 3.5) (drill 1.5) (layers *.Cu *.Mask))
  (pad 6 thru_hole circle (at 8.60869 -6.847661) (size 3.5 3.5) (drill 1.5) (layers *.Cu *.Mask))
  (pad 7 thru_hole circle (at 4.787542 -9.903506) (size 3.5 3.5) (drill 1.5) (layers *.Cu *.Mask))
  (pad 8 thru_hole circle (at 0 -11) (size 3.5 3.5) (drill 1.5) (layers *.Cu *.Mask))
  (pad 9 thru_hole circle (at -4.752943 -9.920158) (size 3.5 3.5) (drill 1.5) (layers *.Cu *.Mask))
  (pad 10 thru_hole circle (at -8.584734 -6.877669) (size 3.5 3.5) (drill 1.5) (layers *.Cu *.Mask))
  (pad 11 thru_hole circle (at -10.718071 -2.474462) (size 3.5 3.5) (drill 1.5) (layers *.Cu *.Mask))
  (pad 12 thru_hole circle (at -10.73088 2.418308) (size 3.5 3.5) (drill 1.5) (layers *.Cu *.Mask))
  (pad 13 thru_hole circle (at -8.620628 6.832626) (size 3.5 3.5) (drill 1.5) (layers *.Cu *.Mask))
  (model /home/rpapis/Elektonika/KiCAD/3dmodels/B13B_Socket_model.step
    (at (xyz 0 0 0))
    (scale (xyz 1 1 1))
    (rotate (xyz 0 0 -38))
  )
)
