(module Bridge_KBPCxxxx (layer F.Cu) (tedit 5ADE30FC)
  (fp_text reference REF** (at -12.5 -15.5) (layer F.SilkS)
    (effects (font (size 1 1) (thickness 0.15)))
  )
  (fp_text value Bridge_KBPCxxxx (at 8 -15.5) (layer F.Fab)
    (effects (font (size 1 1) (thickness 0.15)))
  )
  (fp_line (start 14.5 0) (end 14.5 -14.5) (layer F.SilkS) (width 0.2))
  (fp_line (start 14.5 -14.5) (end -14.5 -14.5) (layer F.SilkS) (width 0.2))
  (fp_line (start -14.5 -14.5) (end -14.5 14.5) (layer F.SilkS) (width 0.2))
  (fp_line (start -14.5 14.5) (end 14.5 14.5) (layer F.SilkS) (width 0.2))
  (fp_line (start 14.5 14.5) (end 14.5 0) (layer F.SilkS) (width 0.2))
  (pad 1 thru_hole oval (at -9.45 -7.55 90) (size 10 4) (drill oval 6.5 1.5) (layers *.Cu *.Mask))
  (pad 2 thru_hole oval (at 7.15 -9.05) (size 10 4) (drill oval 6.5 1.5) (layers *.Cu *.Mask))
  (pad 3 thru_hole oval (at 7.15 9.05) (size 10 4) (drill oval 6.5 1.5) (layers *.Cu *.Mask))
  (pad 4 thru_hole oval (at -7.15 9.05) (size 10 4) (drill oval 6.5 1.5) (layers *.Cu *.Mask))
  (pad "" np_thru_hole circle (at 0 0 90) (size 8 8) (drill 8) (layers *.Cu *.Mask))
  (model "/home/radpapis/Elektronika/KiCAD/3dmodels/bridge/User Library-Bridge KBPC 5012 F.step"
    (offset (xyz -2.7 14.25 4.5))
    (scale (xyz 1 1 1))
    (rotate (xyz -90 0 180))
  )
)
