(module C_35x100 (layer F.Cu) (tedit 5A9C0DB6)
  (fp_text reference REF** (at 22.4 -8.6) (layer F.SilkS)
    (effects (font (size 1 1) (thickness 0.15)))
  )
  (fp_text value C_35x100 (at 24.4 -6.8) (layer F.Fab)
    (effects (font (size 1 1) (thickness 0.15)))
  )
  (fp_circle (center 0 0) (end 18 0) (layer F.SilkS) (width 0.4))
  (fp_line (start -14 2) (end -14 -2) (layer F.SilkS) (width 0.8))
  (fp_line (start -12 0) (end -16 0) (layer F.SilkS) (width 0.8))
  (fp_line (start 12 0) (end 16 0) (layer F.SilkS) (width 0.8))
  (pad 1 thru_hole circle (at -6.35 0) (size 10 10) (drill 5.4) (layers *.Cu *.Mask))
  (pad 2 thru_hole circle (at 6.35 -0.2) (size 10 10) (drill 5.4) (layers *.Cu *.Mask))
)
