(module Crystal_HC49-U_Horizontal (layer F.Cu) (tedit 5859190D)
  (descr "Crystal Quarz HC49/U horizontal liegend Typ I")
  (tags "Crystal Quarz HC49/U horizontal liegend Typ I")
  (fp_text reference REF** (at 0 -8.89) (layer F.SilkS)
    (effects (font (size 1 1) (thickness 0.15)))
  )
  (fp_text value Crystal_HC49-U_Horizontal_Typ1 (at 1.27 2.54) (layer F.Fab)
    (effects (font (size 1 1) (thickness 0.15)))
  )
  (fp_line (start 2.4003 -1.39954) (end 2.4003 -2.49936) (layer F.SilkS) (width 0.15))
  (fp_line (start -2.49936 -1.39954) (end -2.49936 -2.49936) (layer F.SilkS) (width 0.15))
  (fp_line (start -5.00126 -2.49936) (end -5.00126 -16.10106) (layer F.SilkS) (width 0.15))
  (fp_line (start -5.00126 -16.10106) (end 5.00126 -16.10106) (layer F.SilkS) (width 0.15))
  (fp_line (start 5.00126 -16.10106) (end 5.00126 -2.49936) (layer F.SilkS) (width 0.15))
  (fp_line (start -5.4991 -2.49936) (end 5.4991 -2.49936) (layer F.SilkS) (width 0.15))
  (pad 1 thru_hole circle (at -2.44094 0) (size 1.50114 1.50114) (drill 0.8001) (layers *.Cu *.Mask F.SilkS))
  (pad 2 thru_hole circle (at 2.44094 0) (size 1.50114 1.50114) (drill 0.8001) (layers *.Cu *.Mask F.SilkS))
  (model /home/radpapis/Elektronika/KiCAD/3dmodels/hc49/hc49.wrl
    (offset (xyz 0 2.499999962453767 2.499999962453767))
    (scale (xyz 0.3937 0.3937 0.3937))
    (rotate (xyz 90 0 0))
  )
)
