(module DE0_Nano_SoC (layer F.Cu) (tedit 5883548E)
  (fp_text reference REF** (at 29 4) (layer F.SilkS)
    (effects (font (size 1 1) (thickness 0.15)))
  )
  (fp_text value DE0_Nano_SoC (at 24 -15) (layer F.Fab)
    (effects (font (size 1 1) (thickness 0.15)))
  )
  (pad S1 thru_hole circle (at 0 0) (size 6.35 6.35) (drill 3.2) (layers *.Cu *.Mask))
  (pad S2 thru_hole circle (at 62.23 0) (size 6.35 6.35) (drill 3.2) (layers *.Cu *.Mask))
  (pad S3 thru_hole circle (at 62.23 89.65) (size 6.35 6.35) (drill 3.2) (layers *.Cu *.Mask))
  (pad S4 thru_hole circle (at 0 89.65) (size 6.35 6.35) (drill 3.2) (layers *.Cu *.Mask))
  (pad 1 thru_hole rect (at 0.89 57.51 180) (size 1.5 1.5) (drill 0.78) (layers *.Cu *.Mask))
  (pad 5 thru_hole circle (at 0.89 52.43 180) (size 1.5 1.5) (drill 0.78) (layers *.Cu *.Mask))
  (pad 6 thru_hole circle (at -1.65 52.43 180) (size 1.5 1.5) (drill 0.78) (layers *.Cu *.Mask))
  (pad 7 thru_hole circle (at 0.89 49.89 180) (size 1.5 1.5) (drill 0.78) (layers *.Cu *.Mask))
  (pad 8 thru_hole circle (at -1.65 49.89 180) (size 1.5 1.5) (drill 0.78) (layers *.Cu *.Mask))
  (pad 9 thru_hole circle (at 0.89 47.35 180) (size 1.5 1.5) (drill 0.78) (layers *.Cu *.Mask))
  (pad 10 thru_hole circle (at -1.65 47.35 180) (size 1.5 1.5) (drill 0.78) (layers *.Cu *.Mask))
  (pad 11 thru_hole circle (at 0.89 44.81 180) (size 1.5 1.5) (drill 0.78) (layers *.Cu *.Mask))
  (pad 12 thru_hole circle (at -1.65 44.81 180) (size 1.5 1.5) (drill 0.78) (layers *.Cu *.Mask))
  (pad 13 thru_hole circle (at 0.89 42.27 180) (size 1.5 1.5) (drill 0.78) (layers *.Cu *.Mask))
  (pad 14 thru_hole circle (at -1.65 42.27 180) (size 1.5 1.5) (drill 0.78) (layers *.Cu *.Mask))
  (pad 15 thru_hole circle (at 0.89 39.73 180) (size 1.5 1.5) (drill 0.78) (layers *.Cu *.Mask))
  (pad 16 thru_hole circle (at -1.65 39.73 180) (size 1.5 1.5) (drill 0.78) (layers *.Cu *.Mask))
  (pad 17 thru_hole circle (at 0.89 37.19 180) (size 1.5 1.5) (drill 0.78) (layers *.Cu *.Mask))
  (pad 18 thru_hole circle (at -1.65 37.19 180) (size 1.5 1.5) (drill 0.78) (layers *.Cu *.Mask))
  (pad 19 thru_hole circle (at 0.89 34.65 180) (size 1.5 1.5) (drill 0.78) (layers *.Cu *.Mask))
  (pad 20 thru_hole circle (at -1.65 34.65 180) (size 1.5 1.5) (drill 0.78) (layers *.Cu *.Mask))
  (pad 21 thru_hole circle (at 0.89 32.11 180) (size 1.5 1.5) (drill 0.78) (layers *.Cu *.Mask))
  (pad 22 thru_hole circle (at -1.65 32.11 180) (size 1.5 1.5) (drill 0.78) (layers *.Cu *.Mask))
  (pad 23 thru_hole circle (at 0.89 29.57 180) (size 1.5 1.5) (drill 0.78) (layers *.Cu *.Mask))
  (pad 24 thru_hole circle (at -1.65 29.57 180) (size 1.5 1.5) (drill 0.78) (layers *.Cu *.Mask))
  (pad 25 thru_hole circle (at 0.89 27.03 180) (size 1.5 1.5) (drill 0.78) (layers *.Cu *.Mask))
  (pad 26 thru_hole circle (at -1.65 27.03 180) (size 1.5 1.5) (drill 0.78) (layers *.Cu *.Mask))
  (pad 27 thru_hole circle (at 0.89 24.49 180) (size 1.5 1.5) (drill 0.78) (layers *.Cu *.Mask))
  (pad 28 thru_hole circle (at -1.65 24.49 180) (size 1.5 1.5) (drill 0.78) (layers *.Cu *.Mask))
  (pad 29 thru_hole circle (at 0.89 21.95 180) (size 1.5 1.5) (drill 0.78) (layers *.Cu *.Mask))
  (pad 30 thru_hole circle (at -1.65 21.95 180) (size 1.5 1.5) (drill 0.78) (layers *.Cu *.Mask))
  (pad 31 thru_hole circle (at 0.89 19.41 180) (size 1.5 1.5) (drill 0.78) (layers *.Cu *.Mask))
  (pad 32 thru_hole circle (at -1.65 19.41 180) (size 1.5 1.5) (drill 0.78) (layers *.Cu *.Mask))
  (pad 33 thru_hole circle (at 0.89 16.87 180) (size 1.5 1.5) (drill 0.78) (layers *.Cu *.Mask))
  (pad 34 thru_hole circle (at -1.65 16.87 180) (size 1.5 1.5) (drill 0.78) (layers *.Cu *.Mask))
  (pad 35 thru_hole circle (at 0.89 14.33 180) (size 1.5 1.5) (drill 0.78) (layers *.Cu *.Mask))
  (pad 36 thru_hole circle (at -1.65 14.33 180) (size 1.5 1.5) (drill 0.78) (layers *.Cu *.Mask))
  (pad 37 thru_hole circle (at 0.89 11.79 180) (size 1.5 1.5) (drill 0.78) (layers *.Cu *.Mask))
  (pad 38 thru_hole circle (at -1.65 11.79 180) (size 1.5 1.5) (drill 0.78) (layers *.Cu *.Mask))
  (pad 39 thru_hole circle (at 0.89 9.25) (size 1.5 1.5) (drill 0.78) (layers *.Cu *.Mask))
  (pad 40 thru_hole circle (at -1.65 9.25) (size 1.5 1.5) (drill 0.78) (layers *.Cu *.Mask))
  (pad 41 thru_hole rect (at 61.34 9.25) (size 1.5 1.5) (drill 0.78) (layers *.Cu *.Mask))
  (pad 42 thru_hole circle (at 63.88 9.25) (size 1.5 1.5) (drill 0.78) (layers *.Cu *.Mask))
  (pad 43 thru_hole circle (at 61.34 11.79) (size 1.5 1.5) (drill 0.78) (layers *.Cu *.Mask))
  (pad 44 thru_hole circle (at 63.88 11.79) (size 1.5 1.5) (drill 0.78) (layers *.Cu *.Mask))
  (pad 45 thru_hole circle (at 61.34 14.33) (size 1.5 1.5) (drill 0.78) (layers *.Cu *.Mask))
  (pad 46 thru_hole circle (at 63.88 14.33) (size 1.5 1.5) (drill 0.78) (layers *.Cu *.Mask))
  (pad 47 thru_hole circle (at 61.34 16.87) (size 1.5 1.5) (drill 0.78) (layers *.Cu *.Mask))
  (pad 48 thru_hole circle (at 63.88 16.87) (size 1.5 1.5) (drill 0.78) (layers *.Cu *.Mask))
  (pad 49 thru_hole circle (at 61.34 19.41) (size 1.5 1.5) (drill 0.78) (layers *.Cu *.Mask))
  (pad 50 thru_hole circle (at 63.88 19.41) (size 1.5 1.5) (drill 0.78) (layers *.Cu *.Mask))
  (pad 51 thru_hole circle (at 61.34 21.95) (size 1.5 1.5) (drill 0.78) (layers *.Cu *.Mask))
  (pad 52 thru_hole circle (at 63.88 21.95) (size 1.5 1.5) (drill 0.78) (layers *.Cu *.Mask))
  (pad 53 thru_hole circle (at 61.34 24.49) (size 1.5 1.5) (drill 0.78) (layers *.Cu *.Mask))
  (pad 54 thru_hole circle (at 63.88 24.49) (size 1.5 1.5) (drill 0.78) (layers *.Cu *.Mask))
  (pad 55 thru_hole circle (at 61.34 27.03) (size 1.5 1.5) (drill 0.78) (layers *.Cu *.Mask))
  (pad 56 thru_hole circle (at 63.88 27.03) (size 1.5 1.5) (drill 0.78) (layers *.Cu *.Mask))
  (pad 57 thru_hole circle (at 61.34 29.57) (size 1.5 1.5) (drill 0.78) (layers *.Cu *.Mask))
  (pad 58 thru_hole circle (at 63.88 29.57) (size 1.5 1.5) (drill 0.78) (layers *.Cu *.Mask))
  (pad 59 thru_hole circle (at 61.34 32.11) (size 1.5 1.5) (drill 0.78) (layers *.Cu *.Mask))
  (pad 60 thru_hole circle (at 63.88 32.11) (size 1.5 1.5) (drill 0.78) (layers *.Cu *.Mask))
  (pad 61 thru_hole circle (at 61.34 34.65) (size 1.5 1.5) (drill 0.78) (layers *.Cu *.Mask))
  (pad 62 thru_hole circle (at 63.88 34.65) (size 1.5 1.5) (drill 0.78) (layers *.Cu *.Mask))
  (pad 63 thru_hole circle (at 61.34 37.19) (size 1.5 1.5) (drill 0.78) (layers *.Cu *.Mask))
  (pad 64 thru_hole circle (at 63.88 37.19) (size 1.5 1.5) (drill 0.78) (layers *.Cu *.Mask))
  (pad 65 thru_hole circle (at 61.34 39.73) (size 1.5 1.5) (drill 0.78) (layers *.Cu *.Mask))
  (pad 66 thru_hole circle (at 63.88 39.73) (size 1.5 1.5) (drill 0.78) (layers *.Cu *.Mask))
  (pad 67 thru_hole circle (at 61.34 42.27) (size 1.5 1.5) (drill 0.78) (layers *.Cu *.Mask))
  (pad 68 thru_hole circle (at 63.88 42.27) (size 1.5 1.5) (drill 0.78) (layers *.Cu *.Mask))
  (pad 69 thru_hole circle (at 61.34 44.81) (size 1.5 1.5) (drill 0.78) (layers *.Cu *.Mask))
  (pad 70 thru_hole circle (at 63.88 44.81) (size 1.5 1.5) (drill 0.78) (layers *.Cu *.Mask))
  (pad 71 thru_hole circle (at 61.34 47.35) (size 1.5 1.5) (drill 0.78) (layers *.Cu *.Mask))
  (pad 72 thru_hole circle (at 63.88 47.35) (size 1.5 1.5) (drill 0.78) (layers *.Cu *.Mask))
  (pad 73 thru_hole circle (at 61.34 49.89) (size 1.5 1.5) (drill 0.78) (layers *.Cu *.Mask))
  (pad 74 thru_hole circle (at 63.88 49.89) (size 1.5 1.5) (drill 0.78) (layers *.Cu *.Mask))
  (pad 75 thru_hole circle (at 61.34 52.43) (size 1.5 1.5) (drill 0.78) (layers *.Cu *.Mask))
  (pad 76 thru_hole circle (at 63.88 52.43) (size 1.5 1.5) (drill 0.78) (layers *.Cu *.Mask))
  (pad 77 thru_hole circle (at 61.34 54.97) (size 1.5 1.5) (drill 0.78) (layers *.Cu *.Mask))
  (pad 78 thru_hole circle (at 63.88 54.97) (size 1.5 1.5) (drill 0.78) (layers *.Cu *.Mask))
  (pad 79 thru_hole circle (at 61.34 57.51) (size 1.5 1.5) (drill 0.78) (layers *.Cu *.Mask))
  (pad 80 thru_hole circle (at 63.88 57.51) (size 1.5 1.5) (drill 0.78) (layers *.Cu *.Mask))
  (pad 3 thru_hole circle (at 0.89 54.97 180) (size 1.5 1.5) (drill 0.78) (layers *.Cu *.Mask))
  (pad 2 thru_hole circle (at -1.65 57.51 180) (size 1.5 1.5) (drill 0.78) (layers *.Cu *.Mask))
  (pad 4 thru_hole circle (at -1.65 54.97 180) (size 1.5 1.5) (drill 0.78) (layers *.Cu *.Mask))
)
