(module Fuse_6.3x35 (layer F.Cu) (tedit 5A9C19D2)
  (fp_text reference REF** (at 16 -6) (layer F.SilkS)
    (effects (font (size 1 1) (thickness 0.15)))
  )
  (fp_text value Fuse_6.3x35 (at 14 -8) (layer F.Fab)
    (effects (font (size 1 1) (thickness 0.15)))
  )
  (fp_line (start 19 4) (end -19 4) (layer F.SilkS) (width 0.2))
  (fp_line (start -19 2) (end -19 4) (layer F.SilkS) (width 0.2))
  (fp_line (start 19 2) (end 19 4) (layer F.SilkS) (width 0.2))
  (fp_line (start 19 -2) (end 19 -4) (layer F.SilkS) (width 0.2))
  (fp_line (start 19 -4) (end -19 -4) (layer F.SilkS) (width 0.2))
  (fp_line (start -19 -4) (end -19 -2) (layer F.SilkS) (width 0.2))
  (fp_line (start -8 -4) (end -8 -2) (layer F.SilkS) (width 0.2))
  (fp_line (start -8 2) (end -8 4) (layer F.SilkS) (width 0.2))
  (fp_line (start 8 2) (end 8 4) (layer F.SilkS) (width 0.2))
  (fp_line (start 8 -2) (end 8 -4) (layer F.SilkS) (width 0.2))
  (pad 1 thru_hole circle (at -17.45 0) (size 4 4) (drill 1.8) (layers *.Cu *.Mask))
  (pad 2 thru_hole circle (at 9.85 0) (size 4 4) (drill 1.8) (layers *.Cu *.Mask))
  (pad 2 thru_hole circle (at 17.45 0) (size 4 4) (drill 1.8) (layers *.Cu *.Mask))
  (pad 1 thru_hole circle (at -9.85 0) (size 4 4) (drill 1.8) (layers *.Cu *.Mask))
  (model "/home/radpapis/Elektronika/KiCAD/3dmodels/fuse/User Library-Clips LF-102071 with fuse 6_3x32.STEP"
    (at (xyz 0 0 0))
    (scale (xyz 1 1 1))
    (rotate (xyz 0 0 90))
  )
)
