(module HSCDDRD160MD2A3 (layer F.Cu) (tedit 58A45723)
  (fp_text reference REF** (at 6 -1.5 90) (layer F.SilkS)
    (effects (font (size 1 1) (thickness 0.15)))
  )
  (fp_text value HSCDDRD160MD2A3 (at -6.35 0 90) (layer F.Fab)
    (effects (font (size 1 1) (thickness 0.15)))
  )
  (fp_line (start -5 -6) (end -5 6) (layer F.SilkS) (width 0.15))
  (fp_line (start 5 -6) (end 5 6) (layer F.SilkS) (width 0.15))
  (fp_line (start -4.5 3.5) (end 4.5 3.5) (layer F.SilkS) (width 0.15))
  (fp_line (start 4.5 3.5) (end 4.5 -3.5) (layer F.SilkS) (width 0.15))
  (fp_line (start 4.5 -3.5) (end -4.5 -3.5) (layer F.SilkS) (width 0.15))
  (fp_line (start -4.5 -3.5) (end -4.5 3.5) (layer F.SilkS) (width 0.15))
  (fp_line (start -8 2) (end -8 1.5) (layer F.SilkS) (width 0.15))
  (fp_line (start -8 1.5) (end -4.5 1.5) (layer F.SilkS) (width 0.15))
  (fp_line (start -8 2) (end -8 2.5) (layer F.SilkS) (width 0.15))
  (fp_line (start -8 2.5) (end -4.5 2.5) (layer F.SilkS) (width 0.15))
  (fp_line (start 4.5 1.5) (end 8 1.5) (layer F.SilkS) (width 0.15))
  (fp_line (start 8 1.5) (end 8 2.5) (layer F.SilkS) (width 0.15))
  (fp_line (start 8 2.5) (end 4.5 2.5) (layer F.SilkS) (width 0.15))
  (pad 1 thru_hole oval (at -3.81 6.54) (size 1.5 2) (drill 0.9) (layers *.Cu *.Mask))
  (pad 2 thru_hole oval (at -1.27 6.54) (size 1.5 2) (drill 0.9) (layers *.Cu *.Mask))
  (pad 3 thru_hole oval (at 1.27 6.54) (size 1.5 2) (drill 0.9) (layers *.Cu *.Mask))
  (pad 4 thru_hole oval (at 3.81 6.54) (size 1.5 2) (drill 0.9) (layers *.Cu *.Mask))
  (pad 5 thru_hole oval (at 3.81 -6.54) (size 1.5 2) (drill 0.9) (layers *.Cu *.Mask))
  (pad 6 thru_hole oval (at 1.27 -6.54) (size 1.5 2) (drill 0.9) (layers *.Cu *.Mask))
  (pad 7 thru_hole oval (at -1.27 -6.54) (size 1.5 2) (drill 0.9) (layers *.Cu *.Mask))
  (pad 8 thru_hole oval (at -3.81 -6.54) (size 1.5 2) (drill 0.9) (layers *.Cu *.Mask))
)
