(module JUMPER_0603 (layer F.Cu) (tedit 59886A58)
  (fp_text reference REF** (at 0 -1.5) (layer F.SilkS)
    (effects (font (size 1 1) (thickness 0.15)))
  )
  (fp_text value JUMPER_0603 (at 0 1.75) (layer F.Fab)
    (effects (font (size 1 1) (thickness 0.15)))
  )
  (fp_line (start 0 -0.75) (end -2.5 -0.75) (layer F.SilkS) (width 0.15))
  (fp_line (start -2.5 -0.75) (end -2.5 0.75) (layer F.SilkS) (width 0.15))
  (fp_line (start -2.5 0.75) (end 2.5 0.75) (layer F.SilkS) (width 0.15))
  (fp_line (start 2.5 0.75) (end 2.5 -0.75) (layer F.SilkS) (width 0.15))
  (fp_line (start 2.5 -0.75) (end 0 -0.75) (layer F.SilkS) (width 0.15))
  (fp_line (start 0 -0.75) (end 0 -0.75) (layer F.SilkS) (width 0.15))
  (pad 2 smd rect (at 0 0) (size 1.1 1.2) (layers F.Cu F.Paste F.Mask))
  (pad 3 smd rect (at 1.7 0) (size 1.1 1.2) (layers F.Cu F.Paste F.Mask))
  (pad 1 smd rect (at -1.7 0) (size 1.1 1.2) (layers F.Cu F.Paste F.Mask))
)
