(module LC-513 (layer F.Cu) (tedit 5846A4A3)
  (fp_text reference REF** (at 14.7 1.8) (layer F.SilkS)
    (effects (font (size 1 1) (thickness 0.15)))
  )
  (fp_text value LC-513 (at 11.7 -7.1) (layer F.Fab)
    (effects (font (size 1 1) (thickness 0.15)))
  )
  (pad 1 thru_hole circle (at 0 8.35) (size 3 3) (drill 1.5) (layers *.Cu *.Mask))
  (pad 2 thru_hole circle (at 3.621053 7.525993) (size 3 3) (drill 1.5) (layers *.Cu *.Mask))
  (pad 3 thru_hole circle (at 6.525696 5.209395) (size 3 3) (drill 1.5) (layers *.Cu *.Mask))
  (pad 4 thru_hole circle (at 8.139256 1.864138) (size 3 3) (drill 1.5) (layers *.Cu *.Mask))
  (pad 5 thru_hole circle (at 8.142497 -1.84993) (size 3 3) (drill 1.5) (layers *.Cu *.Mask))
  (pad 6 thru_hole circle (at 6.534778 -5.197997) (size 3 3) (drill 1.5) (layers *.Cu *.Mask))
  (pad 7 thru_hole circle (at 3.63418 -7.517662) (size 3 3) (drill 1.5) (layers *.Cu *.Mask))
  (pad 8 thru_hole circle (at 0.014573 -8.349987) (size 3 3) (drill 1.5) (layers *.Cu *.Mask))
  (pad 9 thru_hole circle (at -3.607916 -7.530302) (size 3 3) (drill 1.5) (layers *.Cu *.Mask))
  (pad 10 thru_hole circle (at -6.516594 -5.220776) (size 3 3) (drill 1.5) (layers *.Cu *.Mask))
  (pad 11 thru_hole circle (at -8.13599 -1.878341) (size 3 3) (drill 1.5) (layers *.Cu *.Mask))
  (pad 12 thru_hole circle (at -8.13599 1.835716) (size 3 3) (drill 1.5) (layers *.Cu *.Mask))
  (pad 13 thru_hole circle (at -6.54384 5.186584) (size 3 3) (drill 1.5) (layers *.Cu *.Mask))
)
