(module SMD-8 (layer F.Cu) (tedit 58CD172F)
  (descr "SMD-8 Surface Mount 300mil 8pin Dual In Line Package")
  (tags "Power Integrations G Package")
  (fp_text reference REF** (at 0 0) (layer F.SilkS)
    (effects (font (size 1 1) (thickness 0.15)))
  )
  (fp_text value SMD-8 (at 0 0) (layer F.Fab)
    (effects (font (size 1 1) (thickness 0.15)))
  )
  (fp_line (start 2.413 3.302) (end 2.667 3.302) (layer F.SilkS) (width 0.15))
  (fp_line (start -0.127 3.302) (end 0.127 3.302) (layer F.SilkS) (width 0.15))
  (fp_line (start -2.667 3.302) (end 2.413 3.302) (layer F.SilkS) (width 0.15))
  (fp_line (start -2.667 -3.302) (end 2.67716 -3.302) (layer F.SilkS) (width 0.15))
  (fp_line (start -0.127 -3.302) (end 0.127 -3.302) (layer F.SilkS) (width 0.15))
  (fp_line (start 2.413 -3.302) (end 2.667 -3.302) (layer F.SilkS) (width 0.15))
  (fp_circle (center -4.064 2.159) (end -3.81 2.159) (layer F.SilkS) (width 0.15))
  (fp_line (start -5.08 1.016) (end -5.08 3.302) (layer F.SilkS) (width 0.15))
  (fp_line (start -5.08 -3.302) (end -5.08 -1.016) (layer F.SilkS) (width 0.15))
  (fp_arc (start -5.08 0) (end -4.064 0) (angle 90) (layer F.SilkS) (width 0.15))
  (fp_arc (start -5.08 0) (end -5.08 -1.016) (angle 90) (layer F.SilkS) (width 0.15))
  (fp_line (start 5.08 -3.302) (end 4.572 -3.302) (layer F.SilkS) (width 0.15))
  (fp_line (start 5.08 3.302) (end 4.572 3.302) (layer F.SilkS) (width 0.15))
  (fp_line (start -5.08 3.302) (end -4.572 3.302) (layer F.SilkS) (width 0.15))
  (fp_line (start -5.08 -3.302) (end -4.572 -3.302) (layer F.SilkS) (width 0.15))
  (fp_line (start 5.08 -3.302) (end 5.08 3.302) (layer F.SilkS) (width 0.15))
  (pad 1 smd rect (at -3.6322 4.318) (size 1.1684 2.032) (layers F.Cu F.Paste F.Mask))
  (pad 2 smd rect (at 3.6322 4.318) (size 1.1684 2.032) (layers F.Cu F.Paste F.Mask))
  (pad 3 smd rect (at 3.6322 -4.318) (size 1.1684 2.032) (layers F.Cu F.Paste F.Mask))
  (pad 4 smd rect (at -3.6322 -4.318) (size 1.1684 2.032) (layers F.Cu F.Paste F.Mask))
)
