(module TP_SMD_2_5mm (layer F.Cu) (tedit 586385CF)
  (fp_text reference REF** (at 0 2) (layer F.SilkS)
    (effects (font (size 1 1) (thickness 0.15)))
  )
  (fp_text value TP_SMD_2_5mm (at 0 -2) (layer F.Fab)
    (effects (font (size 1 1) (thickness 0.15)))
  )
  (pad 1 smd circle (at 0 0) (size 2.5 2.5) (layers F.Cu F.Paste F.Mask))
)
