(module TS2_18 (layer F.Cu) (tedit 58CD0CAB)
  (fp_text reference REF** (at 13.25 5.25) (layer F.SilkS)
    (effects (font (size 1 1) (thickness 0.15)))
  )
  (fp_text value TS2_18 (at 13.5 3) (layer F.Fab)
    (effects (font (size 1 1) (thickness 0.15)))
  )
  (fp_line (start -16 -15) (end 18 -15) (layer F.SilkS) (width 0.15))
  (fp_line (start 18 -15) (end 18 15) (layer F.SilkS) (width 0.15))
  (fp_line (start 18 15) (end -18 15) (layer F.SilkS) (width 0.15))
  (fp_line (start -18 15) (end -18 -15) (layer F.SilkS) (width 0.15))
  (fp_line (start -18 -15) (end -16 -15) (layer F.SilkS) (width 0.15))
  (fp_line (start -16 -15) (end -16 -15) (layer F.SilkS) (width 0.15))
  (pad 1 thru_hole oval (at -9.375 10.625) (size 3 4) (drill 1.5) (layers *.Cu *.Mask))
  (pad 2 thru_hole oval (at -3.125 10.625) (size 3 4) (drill 1.5) (layers *.Cu *.Mask))
  (pad 3 thru_hole oval (at 3.125 10.625) (size 3 4) (drill 1.5) (layers *.Cu *.Mask))
  (pad 4 thru_hole oval (at 9.375 10.625) (size 3 4) (drill 1.5) (layers *.Cu *.Mask))
  (pad 5 thru_hole oval (at 9.375 -10.625) (size 3 4) (drill 1.5) (layers *.Cu *.Mask))
  (pad 6 thru_hole oval (at 3.125 -10.625) (size 3 4) (drill 1.5) (layers *.Cu *.Mask))
  (pad 7 thru_hole oval (at -3.125 -10.625) (size 3 4) (drill 1.5) (layers *.Cu *.Mask))
  (pad 8 thru_hole oval (at -9.375 -10.625) (size 3 4) (drill 1.5) (layers *.Cu *.Mask))
)
