(module UDC_QFN20_4x3 (layer F.Cu) (tedit 58C1BD1C)
  (attr smd)
  (fp_text reference REF** (at 0 -3) (layer F.SilkS)
    (effects (font (size 1 1) (thickness 0.15)))
  )
  (fp_text value QFN-20_EP_4x2_Pitch0.5mm (at 0 4.25) (layer F.Fab)
    (effects (font (size 1 1) (thickness 0.15)))
  )
  (fp_line (start -2 -1.5) (end -2 0) (layer F.Fab) (width 0.15))
  (fp_line (start -2 0) (end -2 1.5) (layer F.Fab) (width 0.15))
  (fp_line (start -2 1.5) (end 2 1.5) (layer F.Fab) (width 0.15))
  (fp_line (start 2 1.5) (end 2 -1.5) (layer F.Fab) (width 0.15))
  (fp_line (start 2 -1.5) (end -2 -1.5) (layer F.Fab) (width 0.15))
  (fp_line (start 1.5 -1.75) (end 2.25 -1.75) (layer F.SilkS) (width 0.15))
  (fp_line (start 2.25 -1.4) (end 2.25 -1.75) (layer F.SilkS) (width 0.15))
  (fp_line (start 1.5 1.75) (end 2.25 1.75) (layer F.SilkS) (width 0.15))
  (fp_line (start 2.25 1.4) (end 2.25 1.75) (layer F.SilkS) (width 0.15))
  (fp_line (start -1.5 1.75) (end -2.25 1.75) (layer F.SilkS) (width 0.15))
  (fp_line (start -2.25 1.4) (end -2.25 1.75) (layer F.SilkS) (width 0.15))
  (fp_line (start -1.5 -1.75) (end -2.35 -1.75) (layer F.SilkS) (width 0.15))
  (fp_line (start -2.6 -1.6) (end 2.6 -1.6) (layer F.CrtYd) (width 0.05))
  (fp_line (start 2.6 -1.6) (end 2.6 1.6) (layer F.CrtYd) (width 0.05))
  (fp_line (start 2.6 1.6) (end -2.6 1.6) (layer F.CrtYd) (width 0.05))
  (fp_line (start -2.6 1.6) (end -2.6 -1.6) (layer F.CrtYd) (width 0.05))
  (pad 1 smd oval (at -1.25 1.4 180) (size 0.25 0.7) (layers F.Cu F.Paste F.Mask))
  (pad 2 smd oval (at -0.75 1.4 180) (size 0.25 0.7) (layers F.Cu F.Paste F.Mask))
  (pad 3 smd oval (at -0.25 1.4 180) (size 0.25 0.7) (layers F.Cu F.Paste F.Mask))
  (pad 4 smd oval (at 0.25 1.4 180) (size 0.25 0.7) (layers F.Cu F.Paste F.Mask))
  (pad 5 smd oval (at 0.75 1.4 180) (size 0.25 0.7) (layers F.Cu F.Paste F.Mask))
  (pad 6 smd oval (at 1.25 1.4) (size 0.25 0.7) (layers F.Cu F.Paste F.Mask))
  (pad 7 smd oval (at 1.9 0.75 90) (size 0.25 0.7) (layers F.Cu F.Paste F.Mask))
  (pad 8 smd oval (at 1.9 0.25 90) (size 0.25 0.7) (layers F.Cu F.Paste F.Mask))
  (pad 9 smd oval (at 1.9 -0.25 90) (size 0.25 0.7) (layers F.Cu F.Paste F.Mask))
  (pad 10 smd oval (at 1.9 -0.75 90) (size 0.25 0.7) (layers F.Cu F.Paste F.Mask))
  (pad 11 smd oval (at 1.25 -1.4 180) (size 0.25 0.7) (layers F.Cu F.Paste F.Mask))
  (pad 12 smd oval (at 0.75 -1.4 180) (size 0.25 0.7) (layers F.Cu F.Paste F.Mask))
  (pad 13 smd oval (at 0.25 -1.4 180) (size 0.25 0.7) (layers F.Cu F.Paste F.Mask))
  (pad 14 smd oval (at -0.25 -1.4 180) (size 0.25 0.7) (layers F.Cu F.Paste F.Mask))
  (pad 15 smd oval (at -0.75 -1.4 180) (size 0.25 0.7) (layers F.Cu F.Paste F.Mask))
  (pad 16 smd oval (at -1.25 -1.4) (size 0.25 0.7) (layers F.Cu F.Paste F.Mask))
  (pad 17 smd oval (at -1.9 -0.75 90) (size 0.25 0.7) (layers F.Cu F.Paste F.Mask))
  (pad 18 smd oval (at -1.9 -0.25 90) (size 0.25 0.7) (layers F.Cu F.Paste F.Mask))
  (pad 19 smd oval (at -1.9 0.25 90) (size 0.25 0.7) (layers F.Cu F.Paste F.Mask))
  (pad 20 smd oval (at -1.9 0.75 90) (size 0.25 0.7) (layers F.Cu F.Paste F.Mask))
  (pad 21 smd rect (at -0.6625 0) (size 1.325 1.65) (layers F.Cu F.Paste F.Mask)
    (solder_paste_margin -0.1))
  (pad 21 smd rect (at 0.6625 0) (size 1.325 1.65) (layers F.Cu F.Paste F.Mask)
    (solder_paste_margin -0.1))
  (pad 21 thru_hole circle (at -0.6625 0) (size 0.6625 0.6625) (drill 0.33125) (layers *.Cu *.Mask))
  (pad 21 thru_hole circle (at 0.6625 0) (size 0.6625 0.6625) (drill 0.33125) (layers *.Cu *.Mask))
)
