(footprint "USB_B_mini" (version 20211014) (generator pcbnew)
  (layer "F.Cu")
  (tedit 5A5E5E6C)
  (attr through_hole)
  (fp_text reference "REF**" (at 20.4 -5.4) (layer "F.SilkS")
    (effects (font (size 1 1) (thickness 0.15)))
    (tstamp f3157c9d-bc2c-4447-903a-1420326f7191)
  )
  (fp_text value "USB_B_mini" (at 15.8 -9) (layer "F.Fab")
    (effects (font (size 1 1) (thickness 0.15)))
    (tstamp c89a4666-e2dd-4810-9aef-f98c7df49515)
  )
  (fp_line (start 3.6 4) (end 6.4 4) (layer "F.SilkS") (width 0.2) (tstamp 4c81b4ae-841d-4171-8f77-738a68b6a09e))
  (fp_line (start 8.6 -2.2) (end 8.6 -3.2) (layer "F.SilkS") (width 0.2) (tstamp 5712128d-f128-4507-aa8a-883709899752))
  (fp_line (start 3.6 -4) (end 6.4 -4) (layer "F.SilkS") (width 0.2) (tstamp a86ee655-75d3-4246-a7d4-38450938f817))
  (fp_line (start 8.6 3.2) (end 8.6 2.2) (layer "F.SilkS") (width 0.2) (tstamp e7ef44f5-8fcf-48a3-a58d-7095d92bf6ec))
  (pad "1" smd rect (at 7.85 -1.6) (size 2.3 0.5) (layers "F.Cu" "F.Paste" "F.Mask") (tstamp 8fb50859-dcdf-42b4-80b8-45a956cdda0d))
  (pad "2" smd rect (at 7.85 -0.8) (size 2.3 0.5) (layers "F.Cu" "F.Paste" "F.Mask") (tstamp 45fd295f-bcfe-46a7-b84e-6de178da122e))
  (pad "3" smd rect (at 7.85 0) (size 2.3 0.5) (layers "F.Cu" "F.Paste" "F.Mask") (tstamp 17d6d677-5edf-42e0-97a6-9617970d3ae9))
  (pad "4" smd rect (at 7.85 0.8) (size 2.3 0.5) (layers "F.Cu" "F.Paste" "F.Mask") (tstamp c22a769a-c22d-4d11-b155-7977f4d2f047))
  (pad "5" smd rect (at 7.85 1.6) (size 2.3 0.5) (layers "F.Cu" "F.Paste" "F.Mask") (tstamp 8c7b7f9f-a401-4c64-baaf-5de56f3c9b1f))
  (pad "6" smd rect (at 2.25 -4.45 180) (size 2.5 2) (layers "F.Cu" "F.Paste" "F.Mask") (tstamp 4e7fc8c9-fb7b-4fde-b248-30f33c40bf70))
  (pad "6" smd rect (at 7.75 4.45 180) (size 2.5 2) (layers "F.Cu" "F.Paste" "F.Mask") (tstamp 7ec91c33-1498-4cac-8a06-6dae5d9fada6))
  (pad "6" smd rect (at 7.75 -4.45 180) (size 2.5 2) (layers "F.Cu" "F.Paste" "F.Mask") (tstamp 890ba2ac-7710-4458-a324-4abf0ed4eed7))
  (pad "6" smd rect (at 2.25 4.45 180) (size 2.5 2) (layers "F.Cu" "F.Paste" "F.Mask") (tstamp 9a5ee627-5596-4277-a151-0879af1293f6))
  (pad "7" thru_hole circle (at 5.25 -2.2) (size 0.9 0.9) (drill 0.9) (layers *.Cu *.Mask) (tstamp 6bf23ea6-d8e1-449e-ae55-1a3d6be32155))
  (pad "7" thru_hole circle (at 5.25 2.2) (size 0.9 0.9) (drill 0.9) (layers *.Cu *.Mask) (tstamp ea7cf108-edc3-45fe-a203-43e73a91008d))
  (model "/home/radpapis/Elektronika/KiCAD/3dmodels/USB_mini.wrl"
    (offset (xyz -19.04999971 0 50.79999924))
    (scale (xyz 0.3937 0.3937 0.3937))
    (rotate (xyz -90 0 90))
  )
)
