(module XPORT (layer F.Cu) (tedit 59AEB9D6)
  (fp_text reference REF** (at -8 -15 90) (layer F.SilkS)
    (effects (font (size 1 1) (thickness 0.15)))
  )
  (fp_text value XPORT (at -8.2 -1.4 90) (layer F.Fab)
    (effects (font (size 1 1) (thickness 0.15)))
  )
  (fp_line (start -7 -17.2) (end -7.4 -17.2) (layer F.SilkS) (width 0.15))
  (fp_line (start -7.4 -17.2) (end -7.4 -13.7) (layer F.SilkS) (width 0.15))
  (fp_line (start -7.4 -13.7) (end -7.4 -9) (layer F.SilkS) (width 0.15))
  (fp_line (start -7 -17.2) (end 7.4 -17.2) (layer F.SilkS) (width 0.15))
  (fp_line (start 7.4 -17.2) (end 7.4 -9) (layer F.SilkS) (width 0.15))
  (fp_line (start 7.4 -9) (end 7.3 -9) (layer F.SilkS) (width 0.15))
  (fp_line (start 7.4 -4) (end 7.4 3.6) (layer F.SilkS) (width 0.15))
  (fp_line (start -7.4 -4) (end -7.4 3.6) (layer F.SilkS) (width 0.15))
  (fp_line (start 7.4 7.5) (end 7.4 16.7) (layer F.SilkS) (width 0.15))
  (fp_line (start 7.4 16.7) (end -7.4 16.7) (layer F.SilkS) (width 0.15))
  (fp_line (start -7.4 16.7) (end -7.4 7.5) (layer F.SilkS) (width 0.15))
  (fp_text user FRONT (at 0 -15.7) (layer F.SilkS)
    (effects (font (size 1 1) (thickness 0.15)))
  )
  (pad 9 thru_hole circle (at 7.39 5.55) (size 3 3) (drill 1.6) (layers *.Cu *.Mask))
  (pad "" np_thru_hole rect (at 6.15 -6.35) (size 4 4) (drill 3.25) (layers *.Cu *.Mask))
  (pad 10 thru_hole circle (at -7.39 5.55) (size 3 3) (drill 1.6) (layers *.Cu *.Mask))
  (pad "" np_thru_hole rect (at -6.15 -6.35) (size 4 4) (drill 3.25) (layers *.Cu *.Mask))
  (pad 8 thru_hole circle (at 5.08 0) (size 1.6 1.6) (drill 0.9) (layers *.Cu *.Mask))
  (pad 7 thru_hole circle (at 3.81 2.54) (size 1.6 1.6) (drill 0.9) (layers *.Cu *.Mask))
  (pad 6 thru_hole circle (at 2.54 0) (size 1.6 1.6) (drill 0.9) (layers *.Cu *.Mask))
  (pad 5 thru_hole circle (at 1.27 2.54) (size 1.6 1.6) (drill 0.9) (layers *.Cu *.Mask))
  (pad 4 thru_hole circle (at 0 0) (size 1.6 1.6) (drill 0.9) (layers *.Cu *.Mask))
  (pad 3 thru_hole circle (at -1.27 2.54) (size 1.6 1.6) (drill 0.9) (layers *.Cu *.Mask))
  (pad 2 thru_hole circle (at -2.54 0) (size 1.6 1.6) (drill 0.9) (layers *.Cu *.Mask))
  (pad 1 thru_hole circle (at -3.81 2.54) (size 1.6 1.6) (drill 0.9) (layers *.Cu *.Mask))
)
